<svg width="1855" height="507" viewBox="0 0 1855 507" fill="none" xmlns="http://www.w3.org/2000/svg">
<path d="M976.8 245.656C973.879 244.264 970.383 245.506 968.992 248.428L955.069 277.682C950.316 276.48 945.202 276.439 940.14 277.795C939.367 278.002 938.61 278.238 937.869 278.502L934.071 279.828L871.03 200.679L875.219 199.557C886.795 196.455 893.699 184.546 890.609 173.012C888.688 165.842 881.275 161.576 874.085 163.503L833.763 174.307C826.573 176.234 822.287 183.634 824.208 190.804C827.299 202.338 839.232 209.199 850.809 206.097L858.684 203.987L875.965 225.684L852.391 265.73C838.731 261.233 823.66 260.524 808.761 264.516C767.985 275.441 743.702 317.506 754.628 358.285C765.555 399.063 807.617 423.351 848.392 412.426C880.354 403.862 902.183 376.163 904.862 344.949L955.531 335.235C971.366 330.992 980.797 314.656 976.553 298.819C974.76 292.128 970.808 286.58 965.647 282.724L979.573 253.463C980.963 250.542 979.722 247.046 976.8 245.656ZM847.773 194.778C842.438 196.207 836.943 193.064 835.525 187.771C835.276 186.842 835.845 185.88 836.794 185.626L877.116 174.822C878.064 174.568 879.038 175.116 879.287 176.045C880.705 181.338 877.518 186.807 872.183 188.237L847.773 194.778ZM857.353 280.398C866.065 284.722 873.79 290.98 879.84 298.772L837.916 313.417L857.353 280.398ZM845.359 401.106C810.826 410.36 775.202 389.79 765.948 355.252C756.693 320.714 777.259 285.088 811.793 275.835C823.522 272.692 835.376 272.989 846.281 276.106L820.81 319.375C811.321 323.226 805.95 333.663 808.667 343.804C811.496 354.363 822.08 360.815 832.65 358.676L892.818 347.238C889.364 372.317 871.303 394.155 845.359 401.106ZM837.164 336.169C838.433 340.906 835.614 345.792 830.878 347.061C826.142 348.33 821.256 345.51 819.987 340.772C818.717 336.035 821.538 331.149 826.274 329.88C831.01 328.611 835.895 331.433 837.164 336.169ZM893.335 335.158L848.51 343.689C849.394 340.337 849.443 336.718 848.484 333.136C847.524 329.553 845.672 326.445 843.23 323.983L886.315 308.958C888.35 312.942 889.999 317.197 891.203 321.688C892.406 326.18 893.106 330.691 893.335 335.158ZM927.917 328.577L904.94 332.95C904.594 328.203 903.798 323.421 902.522 318.657C901.245 313.893 899.544 309.354 897.469 305.069L919.555 297.367C917.838 302.646 917.576 308.461 919.117 314.209C920.657 319.958 923.792 324.864 927.917 328.577ZM891.411 294.73C884.138 284.301 874.422 275.951 863.308 270.281L883.782 235.501L922.349 283.923L891.411 294.73ZM952.497 323.916C942.903 326.487 933.007 320.772 930.436 311.177C927.865 301.582 933.578 291.685 943.172 289.114C945.418 288.512 947.682 288.364 949.864 288.615L942.544 303.997C941.153 306.919 942.394 310.416 945.316 311.806C946.625 312.429 948.05 312.524 949.349 312.176C950.949 311.747 952.358 310.646 953.125 309.033L960.443 293.657C962.675 295.839 964.368 298.626 965.232 301.854C967.804 311.448 962.091 321.346 952.497 323.916Z" fill="white"/>
<path d="M976.8 245.656C973.879 244.264 970.383 245.506 968.992 248.428L955.069 277.682C950.316 276.48 945.202 276.439 940.14 277.795C939.367 278.002 938.61 278.238 937.869 278.502L934.071 279.828L871.03 200.679L875.219 199.557C886.795 196.455 893.699 184.546 890.609 173.012C888.688 165.842 881.275 161.576 874.085 163.503L833.763 174.307C826.573 176.234 822.287 183.634 824.208 190.804C827.299 202.338 839.232 209.199 850.809 206.097L858.684 203.987L875.965 225.684L852.391 265.73C838.731 261.233 823.66 260.524 808.761 264.516C767.985 275.441 743.702 317.506 754.628 358.285C765.555 399.063 807.617 423.351 848.392 412.426C880.354 403.862 902.183 376.163 904.862 344.949L955.531 335.235C971.366 330.992 980.797 314.656 976.553 298.819C974.76 292.128 970.808 286.58 965.647 282.724L979.573 253.463C980.963 250.542 979.722 247.046 976.8 245.656ZM847.773 194.778C842.438 196.207 836.943 193.064 835.525 187.771C835.276 186.842 835.845 185.88 836.794 185.626L877.116 174.822C878.064 174.568 879.038 175.116 879.287 176.045C880.705 181.338 877.518 186.807 872.183 188.237L847.773 194.778ZM857.353 280.398C866.065 284.722 873.79 290.98 879.84 298.772L837.916 313.417L857.353 280.398ZM845.359 401.106C810.826 410.36 775.202 389.79 765.948 355.252C756.693 320.714 777.259 285.088 811.793 275.835C823.522 272.692 835.376 272.989 846.281 276.106L820.81 319.375C811.321 323.226 805.95 333.663 808.667 343.804C811.496 354.363 822.08 360.815 832.65 358.676L892.818 347.238C889.364 372.317 871.303 394.155 845.359 401.106ZM837.164 336.169C838.433 340.906 835.614 345.792 830.878 347.061C826.142 348.33 821.256 345.51 819.987 340.772C818.717 336.035 821.538 331.149 826.274 329.88C831.01 328.611 835.895 331.433 837.164 336.169ZM893.335 335.158L848.51 343.689C849.394 340.337 849.443 336.718 848.484 333.136C847.524 329.553 845.672 326.445 843.23 323.983L886.315 308.958C888.35 312.942 889.999 317.197 891.203 321.688C892.406 326.18 893.106 330.691 893.335 335.158ZM927.917 328.577L904.94 332.95C904.594 328.203 903.798 323.421 902.522 318.657C901.245 313.893 899.544 309.354 897.469 305.069L919.555 297.367C917.838 302.646 917.576 308.461 919.117 314.209C920.657 319.958 923.792 324.864 927.917 328.577ZM891.411 294.73C884.138 284.301 874.422 275.951 863.308 270.281L883.782 235.501L922.349 283.923L891.411 294.73ZM952.497 323.916C942.903 326.487 933.007 320.772 930.436 311.177C927.865 301.582 933.578 291.685 943.172 289.114C945.418 288.512 947.682 288.364 949.864 288.615L942.544 303.997C941.153 306.919 942.394 310.416 945.316 311.806C946.625 312.429 948.05 312.524 949.349 312.176C950.949 311.747 952.358 310.646 953.125 309.033L960.443 293.657C962.675 295.839 964.368 298.626 965.232 301.854C967.804 311.448 962.091 321.346 952.497 323.916Z" fill="url(#paint0_linear)"/>
<path d="M1047.23 200.616C1039.59 202.665 1032.52 205.808 1026.16 209.833L980.175 147.207L1012.22 138.621C1013.17 138.367 1014.14 138.916 1014.39 139.844C1015.81 145.138 1012.62 150.607 1007.29 152.036C1004.16 152.874 1002.3 156.086 1003.14 159.213C1003.98 162.339 1007.19 164.193 1010.32 163.356C1021.89 160.254 1028.8 148.345 1025.71 136.811C1023.79 129.641 1016.37 125.375 1009.18 127.302L968.863 138.106C966.994 138.607 965.493 139.998 964.852 141.824C964.211 143.65 964.512 145.674 965.657 147.233L996.9 189.784L980.859 223.491C979.468 226.413 980.71 229.909 983.632 231.3C984.941 231.923 986.364 232.018 987.663 231.67C989.263 231.241 990.672 230.14 991.439 228.527L1004.77 200.509L1016.77 216.844C995.461 235.467 985.298 265.254 993.103 294.386C1004.03 335.165 1046.09 359.453 1086.87 348.527C1127.64 337.602 1151.93 295.536 1141 254.757C1130.07 213.978 1088.01 189.69 1047.23 200.616ZM1083.83 337.207C1049.3 346.46 1013.68 325.89 1004.42 291.352C997.902 267.015 1006.19 242.138 1023.73 226.328L1050.32 262.543C1046.84 267.392 1045.48 273.704 1047.14 279.905C1050.08 290.884 1061.41 297.423 1072.39 294.481C1083.36 291.54 1089.9 280.215 1086.96 269.237C1084.02 258.258 1072.69 251.72 1061.72 254.661C1060.99 254.857 1060.28 255.09 1059.59 255.357L1033.12 219.307C1038.32 216.106 1044.07 213.596 1050.27 211.935C1084.8 202.682 1120.43 223.252 1129.68 257.79C1138.93 292.328 1118.37 327.954 1083.83 337.207ZM1058.46 276.872C1057.19 272.136 1060.01 267.25 1064.75 265.98C1069.48 264.711 1074.37 267.532 1075.64 272.27C1076.91 277.007 1074.09 281.893 1069.35 283.162C1064.62 284.431 1059.73 281.609 1058.46 276.872Z" fill="white"/>
<path d="M1047.23 200.616C1039.59 202.665 1032.52 205.808 1026.16 209.833L980.175 147.207L1012.22 138.621C1013.17 138.367 1014.14 138.916 1014.39 139.844C1015.81 145.138 1012.62 150.607 1007.29 152.036C1004.16 152.874 1002.3 156.086 1003.14 159.213C1003.98 162.339 1007.19 164.193 1010.32 163.356C1021.89 160.254 1028.8 148.345 1025.71 136.811C1023.79 129.641 1016.37 125.375 1009.18 127.302L968.863 138.106C966.994 138.607 965.493 139.998 964.852 141.824C964.211 143.65 964.512 145.674 965.657 147.233L996.9 189.784L980.859 223.491C979.468 226.413 980.71 229.909 983.632 231.3C984.941 231.923 986.364 232.018 987.663 231.67C989.263 231.241 990.672 230.14 991.439 228.527L1004.77 200.509L1016.77 216.844C995.461 235.467 985.298 265.254 993.103 294.386C1004.03 335.165 1046.09 359.453 1086.87 348.527C1127.64 337.602 1151.93 295.536 1141 254.757C1130.07 213.978 1088.01 189.69 1047.23 200.616ZM1083.83 337.207C1049.3 346.46 1013.68 325.89 1004.42 291.352C997.902 267.015 1006.19 242.138 1023.73 226.328L1050.32 262.543C1046.84 267.392 1045.48 273.704 1047.14 279.905C1050.08 290.884 1061.41 297.423 1072.39 294.481C1083.36 291.54 1089.9 280.215 1086.96 269.237C1084.02 258.258 1072.69 251.72 1061.72 254.661C1060.99 254.857 1060.28 255.09 1059.59 255.357L1033.12 219.307C1038.32 216.106 1044.07 213.596 1050.27 211.935C1084.8 202.682 1120.43 223.252 1129.68 257.79C1138.93 292.328 1118.37 327.954 1083.83 337.207ZM1058.46 276.872C1057.19 272.136 1060.01 267.25 1064.75 265.98C1069.48 264.711 1074.37 267.532 1075.64 272.27C1076.91 277.007 1074.09 281.893 1069.35 283.162C1064.62 284.431 1059.73 281.609 1058.46 276.872Z" fill="url(#paint1_linear)"/>
<path d="M991.511 379.667L1119.37 396.353L1121.69 415.667L993.842 399.062L991.511 379.667Z" fill="white"/>
<path d="M991.511 379.667L1119.37 396.353L1121.69 415.667L993.842 399.062L991.511 379.667Z" fill="url(#paint2_linear)"/>
<path d="M810.511 444.667L938.371 461.353L940.692 480.667L812.842 464.062L810.511 444.667Z" fill="white"/>
<path d="M810.511 444.667L938.371 461.353L940.692 480.667L812.842 464.062L810.511 444.667Z" fill="url(#paint3_linear)"/>
<path d="M494.511 396.667L622.371 413.353L624.692 432.667L496.842 416.062L494.511 396.667Z" fill="white"/>
<path d="M494.511 396.667L622.371 413.353L624.692 432.667L496.842 416.062L494.511 396.667Z" fill="url(#paint4_linear)"/>
<path d="M96.4549 52.6669L206.688 71.722L206.688 91.6669L96.4548 71.722L96.4549 52.6669Z" fill="white"/>
<path d="M96.4549 52.6669L206.688 71.722L206.688 91.6669L96.4548 71.722L96.4549 52.6669Z" fill="url(#paint5_linear)"/>
<path d="M0 0L67.9508 33.613V52.6669L0 19.6669V0Z" fill="white"/>
<path d="M0 0L67.9508 33.613V52.6669L0 19.6669V0Z" fill="url(#paint6_linear)"/>
<path d="M236.455 77.6669L346.688 96.722V116.667L236.455 96.722L236.455 77.6669Z" fill="white"/>
<path d="M236.455 77.6669L346.688 96.722V116.667L236.455 96.722L236.455 77.6669Z" fill="url(#paint7_linear)"/>
<path d="M379.455 103.667L489.688 122.722L489.688 142.667L379.455 122.722L379.455 103.667Z" fill="white"/>
<path d="M379.455 103.667L489.688 122.722L489.688 142.667L379.455 122.722L379.455 103.667Z" fill="url(#paint8_linear)"/>
<path d="M361.556 473.269L489.688 487.721L492.346 506.991L364.226 492.62L361.556 473.269Z" fill="white"/>
<path d="M361.556 473.269L489.688 487.721L492.346 506.991L364.226 492.62L361.556 473.269Z" fill="url(#paint9_linear)"/>
<path d="M970.511 468.667L1098.37 485.353L1100.69 504.667L972.842 488.062L970.511 468.667Z" fill="white"/>
<path d="M970.511 468.667L1098.37 485.353L1100.69 504.667L972.842 488.062L970.511 468.667Z" fill="url(#paint10_linear)"/>
<path d="M649.511 420.667L777.371 437.353L779.692 456.667L651.843 440.062L649.511 420.667Z" fill="white"/>
<path d="M649.511 420.667L777.371 437.353L779.692 456.667L651.843 440.062L649.511 420.667Z" fill="url(#paint11_linear)"/>
<path d="M1146.51 402.667L1274.37 419.353L1276.69 438.667L1148.84 422.062L1146.51 402.667Z" fill="white"/>
<path d="M1146.51 402.667L1274.37 419.353L1276.69 438.667L1148.84 422.062L1146.51 402.667Z" fill="url(#paint12_linear)"/>
<path d="M1307.51 426.667L1435.37 443.353L1437.69 462.667L1309.84 446.062L1307.51 426.667Z" fill="white"/>
<path d="M1307.51 426.667L1435.37 443.353L1437.69 462.667L1309.84 446.062L1307.51 426.667Z" fill="url(#paint13_linear)"/>
<path d="M1467.51 450.667L1595.37 467.353L1597.69 486.667L1469.84 470.062L1467.51 450.667Z" fill="white"/>
<path d="M1467.51 450.667L1595.37 467.353L1597.69 486.667L1469.84 470.062L1467.51 450.667Z" fill="url(#paint14_linear)"/>
<path d="M1621.51 378.667L1749.37 395.353L1751.69 414.667L1623.84 398.062L1621.51 378.667Z" fill="white"/>
<path d="M1621.51 378.667L1749.37 395.353L1751.69 414.667L1623.84 398.062L1621.51 378.667Z" fill="url(#paint15_linear)"/>
<path d="M1782.51 408.667L1854.39 420.456L1854.98 439.618L1783.1 427.909L1782.51 408.667Z" fill="white"/>
<path d="M1782.51 408.667L1854.39 420.456L1854.98 439.618L1783.1 427.909L1782.51 408.667Z" fill="url(#paint16_linear)"/>
<defs>
<linearGradient id="paint0_linear" x1="1819.79" y1="412.904" x2="1817.73" y2="436.359" gradientUnits="userSpaceOnUse">
<stop stop-color="white"/>
<stop offset="1" stop-color="white" stop-opacity="0"/>
</linearGradient>
<linearGradient id="paint1_linear" x1="1819.79" y1="412.904" x2="1817.73" y2="436.359" gradientUnits="userSpaceOnUse">
<stop stop-color="white"/>
<stop offset="1" stop-color="white" stop-opacity="0"/>
</linearGradient>
<linearGradient id="paint2_linear" x1="1819.79" y1="412.904" x2="1817.73" y2="436.359" gradientUnits="userSpaceOnUse">
<stop stop-color="white"/>
<stop offset="1" stop-color="white" stop-opacity="0"/>
</linearGradient>
<linearGradient id="paint3_linear" x1="1819.79" y1="412.904" x2="1817.73" y2="436.359" gradientUnits="userSpaceOnUse">
<stop stop-color="white"/>
<stop offset="1" stop-color="white" stop-opacity="0"/>
</linearGradient>
<linearGradient id="paint4_linear" x1="1819.79" y1="412.904" x2="1817.73" y2="436.359" gradientUnits="userSpaceOnUse">
<stop stop-color="white"/>
<stop offset="1" stop-color="white" stop-opacity="0"/>
</linearGradient>
<linearGradient id="paint5_linear" x1="1819.79" y1="412.904" x2="1817.73" y2="436.359" gradientUnits="userSpaceOnUse">
<stop stop-color="white"/>
<stop offset="1" stop-color="white" stop-opacity="0"/>
</linearGradient>
<linearGradient id="paint6_linear" x1="1819.79" y1="412.904" x2="1817.73" y2="436.359" gradientUnits="userSpaceOnUse">
<stop stop-color="white"/>
<stop offset="1" stop-color="white" stop-opacity="0"/>
</linearGradient>
<linearGradient id="paint7_linear" x1="1819.79" y1="412.904" x2="1817.73" y2="436.359" gradientUnits="userSpaceOnUse">
<stop stop-color="white"/>
<stop offset="1" stop-color="white" stop-opacity="0"/>
</linearGradient>
<linearGradient id="paint8_linear" x1="1819.79" y1="412.904" x2="1817.73" y2="436.359" gradientUnits="userSpaceOnUse">
<stop stop-color="white"/>
<stop offset="1" stop-color="white" stop-opacity="0"/>
</linearGradient>
<linearGradient id="paint9_linear" x1="1819.79" y1="412.904" x2="1817.73" y2="436.359" gradientUnits="userSpaceOnUse">
<stop stop-color="white"/>
<stop offset="1" stop-color="white" stop-opacity="0"/>
</linearGradient>
<linearGradient id="paint10_linear" x1="1819.79" y1="412.904" x2="1817.73" y2="436.359" gradientUnits="userSpaceOnUse">
<stop stop-color="white"/>
<stop offset="1" stop-color="white" stop-opacity="0"/>
</linearGradient>
<linearGradient id="paint11_linear" x1="1819.79" y1="412.904" x2="1817.73" y2="436.359" gradientUnits="userSpaceOnUse">
<stop stop-color="white"/>
<stop offset="1" stop-color="white" stop-opacity="0"/>
</linearGradient>
<linearGradient id="paint12_linear" x1="1819.79" y1="412.904" x2="1817.73" y2="436.359" gradientUnits="userSpaceOnUse">
<stop stop-color="white"/>
<stop offset="1" stop-color="white" stop-opacity="0"/>
</linearGradient>
<linearGradient id="paint13_linear" x1="1819.79" y1="412.904" x2="1817.73" y2="436.359" gradientUnits="userSpaceOnUse">
<stop stop-color="white"/>
<stop offset="1" stop-color="white" stop-opacity="0"/>
</linearGradient>
<linearGradient id="paint14_linear" x1="1819.79" y1="412.904" x2="1817.73" y2="436.359" gradientUnits="userSpaceOnUse">
<stop stop-color="white"/>
<stop offset="1" stop-color="white" stop-opacity="0"/>
</linearGradient>
<linearGradient id="paint15_linear" x1="1819.79" y1="412.904" x2="1817.73" y2="436.359" gradientUnits="userSpaceOnUse">
<stop stop-color="white"/>
<stop offset="1" stop-color="white" stop-opacity="0"/>
</linearGradient>
<linearGradient id="paint16_linear" x1="1819.79" y1="412.904" x2="1817.73" y2="436.359" gradientUnits="userSpaceOnUse">
<stop stop-color="white"/>
<stop offset="1" stop-color="white" stop-opacity="0"/>
</linearGradient>
</defs>
</svg>
